^C:\USERS\SORTOFSLEEPY\DOCUMENTS\PROJECTS\SKETCHES\COMPUTEPARTICLES\VC2015\RESOURCES.RC
C:\USERS\SORTOFSLEEPY\DOCUMENTS\PROJECTS\SKETCHES\COMPUTEPARTICLES\INCLUDE\RESOURCES.H
C:\USERS\SORTOFSLEEPY\DOCUMENTS\LIBRARIES\CINDER\INCLUDE\CINDER\CINDERRESOURCES.H
C:\USERS\SORTOFSLEEPY\DOCUMENTS\PROJECTS\SKETCHES\COMPUTEPARTICLES\RESOURCES\CINDER_APP_ICON.ICO
